Measure Memory Usage for Parallel R Code • syrup
…
Installation

You can install the development version of syrup like so:

pak::pak("simonpcouch/syrup")

Example

library(syrup)
#> Loading required package: bench

The main function in the syrup package is the function by the same name. The main argument to syrup() is an expression, and the function outputs a tibble. Supplying a rather boring expression:

syrup(Sys.sleep(1))
#> # A tibble: 48 × 8
#>       id time                  pid  ppid name           pct_cpu       rss    vms
#>    <dbl> <dttm>              <int> <int> <chr>            <dbl> <bch:byt> <bch:>
#>  1     1 2024-07-03 09:21:29 60958 60522 R                   NA     118MB  392GB
#>  2     1 2024-07-03 09:21:29 60522 60300 rsession-arm64      NA     840MB  394GB
#>  3     1 2024-07-03 09:21:29 58919     1 R                   NA     607MB  393GB
#>  4     1 2024-07-03 09:21:29 97009     1 rsession-arm64      NA     240KB  394GB
#>  5     1 2024-07-03 09:21:29 97008     1 rsession-arm64      NA     240KB  394GB
#>  6     1 2024-07-03 09:21:29 97007     1 rsession-arm64      NA     240KB  394GB
#>  7     1 2024-07-03 09:21:29 97006     1 rsession-arm64      NA     240KB  394GB
#>  8     1 2024-07-03 09:21:29 97005     1 rsession-arm64      NA     240KB  394GB
#>  9     1 2024-07-03 09:21:29 91012     1 R                   NA     160KB  393GB
#> 10     1 2024-07-03 09:21:29 90999     1 R                   NA     160KB  393GB
#> # ℹ 38 more rows
…
Using future to define our parallelism strategy, we’ll set plan(multicore, workers = 5), indicating that we’d like to use forking with 5 workers. By default, future disables forking from RStudio; I know that, in the context of building this README, this usage of forking is safe, so I’ll temporarily override that default with parallelly.fork.enable.

local_options(parallelly.fork.enable = TRUE)
plan(multicore, workers = 5)

Now, simulating some data:

set.seed(1)
dat <- sim_regression(1000000)

dat
#> # A tibble: 1,000,000 × 21
#>    outcome predictor_01 predictor_02 predictor_03 predictor_04 predictor_05
#>      <dbl>        <dbl>        <dbl>        <dbl>        <dbl>        <dbl>
#>  1    3.63       -1.88        0.872       -0.799       -0.0379       2.68  
#>  2   41.6         0.551      -2.47         2.37         3.90         5.18  
#>  3   -6.99       -2.51       -3.15         2.61         2.13         3.08  
#>  4   33.2         4.79        1.86        -2.37         4.27        -3.59  
#>  5   34.3         0.989      -0.315        3.08         2.56        -5.91  
#>  6   26.7        -2.46       -0.459        1.75        -5.24         5.04  
#>  7   21.4         1.46       -0.674       -0.894       -3.91        -3.38  
#>  8   21.7         2.21        1.28        -1.05        -0.561        2.99  
#>  9   -8.84        1.73        0.0725       0.0976       5.40         4.30  
#> 10   24.5        -0.916      -0.223       -0.561       -4.12         0.0508
#> # ℹ 999,990 more rows
#> # ℹ 15 more variables: predictor_06 <dbl>, predictor_07 <dbl>,
#> #   predictor_08 <dbl>, predictor_09 <dbl>, predictor_10 <dbl>,
#> #   predictor_11 <dbl>, predictor_12 <dbl>, predictor_13 <dbl>,
#> #   predictor_14 <dbl>, predictor_15 <dbl>, predictor_16 <dbl>,
#> #   predictor_17 <dbl>, predictor_18 <dbl>, predictor_19 <dbl>,
#> #   predictor_20 <dbl>

The call to tune_grid() does some setup sequentially before sending data off to the five child processes to actually carry out the model fitting. After models are fitted, data is sent back to the parent process to be combined. To better understand memory usage throughout that process, we wrap the call in syrup():

res_mem <- syrup({
  res <-
    tune_grid(
      linear_reg(engine = "glmnet", penalty = tune()),
      outcome ~ .,
      vfold_cv(dat)
    )
})

res_mem
#> # A tibble: 158 × 8
#>       id time                  pid  ppid name           pct_cpu       rss    vms
#>    <dbl> <dttm>              <int> <int> <chr>            <dbl> <bch:byt> <bch:>
#>  1     1 2024-07-03 09:21:33 60958 60522 R                   NA    1.12GB  393GB
#>  2     1 2024-07-03 09:21:33 60522 60300 rsession-arm64      NA  840.28MB  394GB
#>  3     1 2024-07-03 09:21:33 58919     1 R                   NA  624.81MB  393GB
#>  4     1 2024-07-03 09:21:33 97009     1 rsession-arm64      NA     240KB  394GB
#>  5     1 2024-07-03 09:21:33 97008     1 rsession-arm64      NA     240KB  394GB
#>  6     1 2024-07-03 09:21:33 97007     1 rsession-arm64      NA     240KB  394GB
#>  7     1 2024-07-03 09:21:33 97006     1 rsession-arm64      NA     240KB  394GB
#>  8     1 2024-07-03 09:21:33 97005     1 rsession-arm64      NA     240KB  394GB
#>  9     1 2024-07-03 09:21:33 91012     1 R                   NA     160KB  393GB
#> 10     1 2024-07-03 09:21:33 90999     1 R                   NA     160KB  393GB
#> # ℹ 148 more rows
…
