Memory Usage Information for Parallel R Code — syrup • syrup
…
# pass any expression to syrup. first, sequentially:
res_syrup <- syrup({res_output <- Sys.sleep(1)})

res_syrup
#> # A tibble: 3 × 6
#>      id   pid  ppid name        rss       vms
#>   <dbl> <int> <int> <chr> <bch:byt> <bch:byt>
#> 1     1  5953  1621 R         259MB     918MB
#> 2     2  5953  1621 R         259MB     918MB
#> 3     3  5953  1621 R         259MB     918MB

# to snapshot memory information more (or less) often, set `interval`
syrup(Sys.sleep(1), interval = .01)
#> # A tibble: 27 × 6
#>       id   pid  ppid name        rss       vms
#>    <dbl> <int> <int> <chr> <bch:byt> <bch:byt>
#>  1     1  5953  1621 R         262MB     921MB
#>  2     2  5953  1621 R         262MB     921MB
#>  3     3  5953  1621 R         262MB     921MB
#>  4     4  5953  1621 R         262MB     921MB
#>  5     5  5953  1621 R         262MB     921MB
#>  6     6  5953  1621 R         262MB     921MB
#>  7     7  5953  1621 R         262MB     921MB
#>  8     8  5953  1621 R         262MB     921MB
#>  9     9  5953  1621 R         262MB     921MB
#> 10    10  5953  1621 R         262MB     921MB
#> # ℹ 17 more rows
…
